-------------------------------------------------------------------------------
Test set: net.tncy.mke.bookmarket.data.AppTest
-------------------------------------------------------------------------------
Tests run: 1, Failures: 0, Errors: 0, Skipped: 0, Time elapsed: 0.334 s - in net.tncy.mke.bookmarket.data.AppTest
